\relax 
\providecommand\hyper@newdestlabel[2]{}
\providecommand\HyperFirstAtBeginDocument{\AtBeginDocument}
\HyperFirstAtBeginDocument{\ifx\hyper@anchor\@undefined
\global\let\oldcontentsline\contentsline
\gdef\contentsline#1#2#3#4{\oldcontentsline{#1}{#2}{#3}}
\global\let\oldnewlabel\newlabel
\gdef\newlabel#1#2{\newlabelxx{#1}#2}
\gdef\newlabelxx#1#2#3#4#5#6{\oldnewlabel{#1}{{#2}{#3}}}
\AtEndDocument{\ifx\hyper@anchor\@undefined
\let\contentsline\oldcontentsline
\let\newlabel\oldnewlabel
\fi}
\fi}
\global\let\hyper@last\relax 
\gdef\HyperFirstAtBeginDocument#1{#1}
\providecommand*\HyPL@Entry[1]{}
\HyPL@Entry{0<</S/D>>}
\@writefile{toc}{\contentsline {section}{\numberline {1}Introduction}{2}{section.1}}
\@writefile{toc}{\contentsline {section}{\numberline {2}Requirements}{3}{section.2}}
\@writefile{toc}{\contentsline {section}{\numberline {3}Usage}{3}{section.3}}
\newlabel{section:hex}{{3.1}{3}{Listing by Hexadecimal Value}{subsection.3.1}{}}
\@writefile{toc}{\contentsline {subsection}{\numberline {3.1}Listing by Hexadecimal Value}{3}{subsection.3.1}}
\gdef \LT@i {\LT@entry 
    {1}{33.61pt}\LT@entry 
    {1}{125.81102pt}\LT@entry 
    {1}{154.26378pt}\LT@entry 
    {1}{54.67912pt}\LT@entry 
    {1}{54.67912pt}\LT@entry 
    {1}{0.0pt}}
\providecommand\HD@SetMacroIndent[1]{}
\HD@SetMacroIndent{0}
